<svg width="25" height="25" viewBox="0 0 25 25" fill="none" xmlns="http://www.w3.org/2000/svg">
<g clip-path="url(#clip0_474_1930)">
<path fill-rule="evenodd" clip-rule="evenodd" d="M21.1477 0H3.8523C1.72475 0 0 1.72475 0 3.85231V21.1477C0 23.2752 1.72475 25 3.8523 25H21.1477C23.2752 25 25 23.2752 25 21.1477V3.85231C25 1.72475 23.2752 0 21.1477 0ZM13.3129 17.5008H12.2903C12.2903 17.5008 10.0339 17.6365 8.04658 15.5674C5.87937 13.311 3.96557 8.83328 3.96557 8.83328C3.96557 8.83328 3.85521 8.53981 3.97515 8.39775C4.10998 8.23816 4.47689 8.22792 4.47689 8.22792L6.92159 8.21196C6.92159 8.21196 7.15191 8.25033 7.31675 8.37143C7.45266 8.47138 7.52876 8.65808 7.52876 8.65808C7.52876 8.65808 7.92392 9.65741 8.4471 10.5613C9.46839 12.3261 9.94411 12.7121 10.2908 12.5229C10.7962 12.2474 10.6446 10.0283 10.6446 10.0283C10.6446 10.0283 10.6538 9.22295 10.3901 8.86419C10.186 8.58645 9.80107 8.50517 9.63098 8.48252C9.49339 8.46414 9.7192 8.14484 10.0119 8.00151C10.4518 7.78601 11.2285 7.77384 12.1465 7.78318C12.8617 7.79046 13.0677 7.83511 13.3473 7.90258C13.9962 8.05923 13.9759 8.56121 13.9322 9.64429C13.9192 9.96795 13.9041 10.3435 13.9041 10.7771C13.9041 10.8748 13.9012 10.9789 13.8983 11.086C13.8831 11.6406 13.8657 12.2754 14.2309 12.5114C14.4181 12.6324 14.8763 12.5295 16.0218 10.5843C16.5646 9.66232 16.9719 8.57844 16.9719 8.57844C16.9719 8.57844 17.0606 8.38516 17.1989 8.30245C17.3403 8.21786 17.5312 8.24382 17.5312 8.24382L20.1037 8.22792C20.1037 8.22792 20.8768 8.13574 21.0019 8.48469C21.1331 8.85093 20.713 9.70607 19.662 11.1069C18.6638 12.4372 18.1788 12.9262 18.2244 13.3593C18.2576 13.675 18.5729 13.961 19.177 14.5217C20.4433 15.6971 20.781 16.3144 20.8611 16.4609C20.8676 16.4728 20.8724 16.4815 20.8759 16.4873C21.4426 17.4271 20.2474 17.5008 20.2474 17.5008L17.9626 17.5327C17.9626 17.5327 17.4715 17.6298 16.8254 17.1861C16.4876 16.9542 16.1573 16.5755 15.8426 16.2147C15.3613 15.6629 14.9165 15.1529 14.5369 15.2734C13.9001 15.4754 13.9201 16.8476 13.9201 16.8476C13.9201 16.8476 13.9247 17.1406 13.7796 17.2968C13.6217 17.4667 13.3129 17.5008 13.3129 17.5008Z" fill="white" fill-opacity="0.15"/>
</g>
<defs>
<clipPath id="clip0_474_1930">
<rect width="25" height="25" rx="12.5" fill="white"/>
</clipPath>
</defs>
</svg>
