<svg width="25" height="19" viewBox="0 0 25 19" fill="none" xmlns="http://www.w3.org/2000/svg">
<path d="M9.94313 13.3371V5.66292L16.4773 9.50013L9.94313 13.3371ZM24.4776 3.24818C24.19 2.13065 23.3429 1.25055 22.2673 0.951874C20.3177 0.409058 12.4999 0.409058 12.4999 0.409058C12.4999 0.409058 4.68227 0.409058 2.7327 0.951874C1.65714 1.25055 0.809977 2.13065 0.522442 3.24818C0 5.27373 0 9.50002 0 9.50002C0 9.50002 0 13.7261 0.522442 15.7518C0.809977 16.8694 1.65703 17.7494 2.7327 18.0483C4.68227 18.5909 12.4999 18.5909 12.4999 18.5909C12.4999 18.5909 20.3177 18.5909 22.2673 18.0483C23.3429 17.7494 24.19 16.8694 24.4776 15.7518C25 13.7261 25 9.49991 25 9.49991C25 9.49991 25 5.27373 24.4776 3.24818Z" fill="white" fill-opacity="0.15"/>
</svg>
